A meta-analysis for psychophysiological and emotional effects of video gaming
…
Included studies

Number of studies

# Number of included articles
nrow(counting_article)

## [1] 60

Year of publication

# Articles by year
count(counting_article, year)

## # A tibble: 29 x 2
##     year     n
##    <int> <int>
##  1  1984     2
##  2  1985     4
##  3  1986     1
##  4  1988     1
##  5  1989     1
##  6  1990     1
##  7  1991     1
##  8  1992     2
##  9  1994     4
## 10  1995     5
## # ... with 19 more rows
…
Number of included games

cleaned %>% 
    filter(!duplicated(measurement_game)) %>% 
    nrow()

## [1] 54

Year of first publication

games %>% 
    distinct(measurement_game, .keep_all = TRUE) %>% 
    count(game_year, sort = TRUE)

## # A tibble: 25 x 2
##    game_year     n
##        <int> <int>
##  1        NA    18
##  2      2009     5
##  3      2010     3
##  4      1984     2
##  5      1992     2
##  6      2000     2
##  7      2003     2
##  8      2004     2
##  9      2014     2
## 10      1972     1
## # ... with 15 more rows
…
